wave.vcd
$date
	Fri Mar 10 10:29:04 2017
$end
$version
	Icarus Verilog
$end
$timescale
	1s
$end
$scope module data_path_tb $end
$scope module data_path_u $end
$var wire 32 ! addr_data [31:0] $end
$var wire 1 " clk $end
$var wire 32 # instr [31:0] $end
$var wire 1 $ ldr_stall $end
$var wire 32 % pc [31:0] $end
$var wire 1 & pc_write_pending_f $end
$var wire 1 ' reset $end
$var wire 1 ( we $end
$var wire 32 ) write_data [31:0] $end
$var wire 32 * write_data_m [31:0] $end
$var wire 32 + write_data_e [31:0] $end
$var wire 4 , wa3_w [3:0] $end
$var wire 4 - wa3_m [3:0] $end
$var wire 4 . wa3_e [3:0] $end
$var wire 4 / wa3_d [3:0] $end
$var wire 1 0 swap_d $end
$var wire 32 1 shift_result [31:0] $end
$var wire 1 2 shift_flag $end
$var wire 32 3 result_w [31:0] $end
$var wire 1 4 reg_write_w $end
$var wire 1 5 reg_write_m $end
$var wire 1 6 reg_write_e $end
$var wire 1 7 reg_write_d $end
$var wire 2 8 reg_src_d [1:0] $end
$var wire 32 9 read_data [31:0] $end
$var wire 32 : rd2_d [31:0] $end
$var wire 32 ; rd1_d [31:0] $end
$var wire 4 < ra2_d [3:0] $end
$var wire 4 = ra1_d [3:0] $end
$var wire 1 > pc_src_w $end
$var wire 1 ? pc_src_m $end
$var wire 1 @ pc_src_e $end
$var wire 1 A pc_src_d $end
$var wire 32 B pc_plus4_f [31:0] $end
$var wire 32 C pc_f [31:0] $end
$var wire 1 D mem_write_m $end
$var wire 1 E mem_write_e $end
$var wire 1 F mem_write_d $end
$var wire 1 G mem_to_reg_m $end
$var wire 1 H mem_to_reg_e $end
$var wire 1 I mem_to_reg_d $end
$var wire 32 J instr_f [31:0] $end
$var wire 2 K imm_src_d [1:0] $end
$var wire 2 L forward_b_e [1:0] $end
$var wire 2 M forward_a_e [1:0] $end
$var wire 2 N flag_write_d [1:0] $end
$var wire 32 O ext_imm_d [31:0] $end
$var wire 4 P cond_d [3:0] $end
$var wire 1 Q branch_take_e $end
$var wire 1 R branch_d $end
$var wire 1 S alu_src_d $end
$var wire 32 T alu_result_e [31:0] $end
$var wire 32 U alu_out_m [31:0] $end
$var wire 3 V alu_control_d [2:0] $end
$scope module decode_u $end
$var wire 1 " clk $end
$var wire 1 W flush_d $end
$var wire 4 X ra1_d [3:0] $end
$var wire 4 Y ra2_d [3:0] $end
$var wire 1 ' reset $end
$var wire 1 $ stall_d $end
$var wire 1 4 we3 $end
$var wire 4 Z wa3_w [3:0] $end
$var wire 4 [ wa3_d [3:0] $end
$var wire 1 0 swap_d $end
$var wire 32 \ shift_result_d [31:0] $end
$var wire 1 2 shift_flag_d $end
$var wire 1 7 reg_write_d $end
$var wire 2 ] reg_src_d [1:0] $end
$var wire 32 ^ rd4 [31:0] $end
$var wire 32 _ rd3 [31:0] $end
$var wire 32 ` rd2_d [31:0] $end
$var wire 32 a rd1_d [31:0] $end
$var wire 4 b rd [3:0] $end
$var wire 4 c ra4 [3:0] $end
$var wire 4 d ra2 [3:0] $end
$var wire 4 e ra1 [3:0] $end
$var wire 1 A pc_src_d $end
$var wire 32 f pc_plus8_d [31:0] $end
$var wire 32 g pc_plus4_f [31:0] $end
$var wire 2 h op [1:0] $end
$var wire 1 i no_write_d $end
$var wire 1 F mem_write_d $end
$var wire 1 I mem_to_reg_d $end
$var wire 1 j link $end
$var wire 32 k instr_f [31:0] $end
$var wire 2 l imm_src_d [1:0] $end
$var wire 6 m funct [5:0] $end
$var wire 2 n flag_write_d [1:0] $end
$var wire 32 o ext_imm_d [31:0] $end
$var wire 4 p cond_d [3:0] $end
$var wire 1 R branch_d $end
$var wire 1 S alu_src_d $end
$var wire 32 q alu_out_m [31:0] $end
$var wire 3 r alu_control_d [2:0] $end
$var reg 32 s instr_d [31:0] $end
$scope module decoder_u $end
$var wire 6 t funct [5:0] $end
$var wire 2 u op [1:0] $end
$var wire 1 A pcs $end
$var wire 4 v rd [3:0] $end
$var wire 1 0 swap $end
$var wire 1 2 shift_flag $end
$var wire 1 7 reg_w $end
$var wire 2 w reg_src [1:0] $end
$var wire 1 i no_write $end
$var wire 1 F mem_w $end
$var wire 1 I mem_to_reg $end
$var wire 1 j link $end
$var wire 2 x imm_src [1:0] $end
$var wire 2 y flag_w [1:0] $end
$var wire 4 z cmd [3:0] $end
$var wire 1 R branch $end
$var wire 1 S alu_src $end
$var wire 1 { alu_op $end
$var reg 3 | alu_control [2:0] $end
$var reg 10 } control [9:0] $end
$upscope $end
$scope module extend_u $end
$var wire 2 ~ imm_src [1:0] $end
$var wire 24 !" instr [23:0] $end
$var reg 32 "" ext_imm [31:0] $end
$upscope $end
$scope module reg_file_u $end
$var wire 4 #" a1 [3:0] $end
$var wire 4 $" a2 [3:0] $end
$var wire 4 %" a4 [3:0] $end
$var wire 1 " clk $end
$var wire 1 j link $end
$var wire 32 &" r14 [31:0] $end
$var wire 32 '" r15 [31:0] $end
$var wire 1 ' reset $end
$var wire 1 7 we3 $end
$var wire 32 (" wd3 [31:0] $end
$var wire 32 )" rd4 [31:0] $end
$var wire 32 *" rd3 [31:0] $end
$var wire 32 +" rd2 [31:0] $end
$var wire 32 ," rd1 [31:0] $end
$var wire 4 -" a3 [3:0] $end
$upscope $end
$scope module shift_u $end
$var wire 1 S alu_src $end
$var wire 1 ." carry $end
$var wire 32 /" imm [31:0] $end
$var wire 12 0" instr [11:0] $end
$var wire 32 1" rd2 [31:0] $end
$var wire 32 2" rd3 [31:0] $end
$var wire 32 3" src [31:0] $end
$var wire 6 4" shamt [5:0] $end
$var wire 2 5" sh [1:0] $end
$var wire 32 6" ror_out [31:0] $end
$var wire 1 7" flag $end
$var reg 32 8" shift_result [31:0] $end
$upscope $end
$upscope $end
$scope module execute_u $end
$var wire 3 9" alu_control_d [2:0] $end
$var wire 1 S alu_src_d $end
$var wire 1 R branch_d $end
$var wire 1 Q branch_take_e $end
$var wire 1 " clk $end
$var wire 4 :" cond_d [3:0] $end
$var wire 32 ;" ext_imm_d [31:0] $end
$var wire 2 <" flag_write_d [1:0] $end
$var wire 1 =" flush_e $end
$var wire 2 >" forward_a_e [1:0] $end
$var wire 2 ?" forward_b_e [1:0] $end
$var wire 2 @" imm_src_d [1:0] $end
$var wire 1 I mem_to_reg_d $end
$var wire 1 F mem_write_d $end
$var wire 1 A" no_write $end
$var wire 1 A pc_src_d $end
$var wire 32 B" rd1_d [31:0] $end
$var wire 32 C" rd2_d [31:0] $end
$var wire 1 7 reg_write_d $end
$var wire 1 ' reset $end
$var wire 1 2 shift_flag_d $end
$var wire 32 D" shift_result_d [31:0] $end
$var wire 1 0 swap_d $end
$var wire 4 E" wa3_d [3:0] $end
$var wire 32 F" write_data_e [31:0] $end
$var wire 4 G" wa3_w [3:0] $end
$var wire 32 H" src_b_e [31:0] $end
$var wire 32 I" src_b [31:0] $end
$var wire 32 J" src_a_e [31:0] $end
$var wire 32 K" result_w [31:0] $end
$var wire 1 L" reg_write $end
$var wire 1 M" pc_src $end
$var wire 1 N" mem_write $end
$var wire 32 O" alu_result_e [31:0] $end
$var wire 32 P" alu_result [31:0] $end
$var wire 32 Q" alu_out_m [31:0] $end
$var wire 4 R" alu_flags [3:0] $end
$var reg 3 S" alu_control_e [2:0] $end
$var reg 1 T" alu_src_e $end
$var reg 1 Q branch_e $end
$var reg 4 U" cond_e [3:0] $end
$var reg 32 V" ext_imm_e [31:0] $end
$var reg 1 W" flag_e $end
$var reg 1 X" flag_wirte_e $end
$var reg 2 Y" flag_write_e [1:0] $end
$var reg 1 Z" flags $end
$var reg 1 H mem_to_reg_e $end
$var reg 1 E mem_write_e $end
$var reg 1 @ pc_src_e $end
$var reg 32 [" rd1_e [31:0] $end
$var reg 32 \" rd2_e [31:0] $end
$var reg 1 6 reg_write_e $end
$var reg 1 ]" shift_flag_e $end
$var reg 32 ^" shift_result_e [31:0] $end
$var reg 1 _" swap_e $end
$var reg 4 `" wa3_e [3:0] $end
$scope module alu_u $end
$var wire 3 a" alu_control [2:0] $end
$var wire 1 b" carry $end
$var wire 32 c" src_ina [31:0] $end
$var wire 32 d" src_inb [31:0] $end
$var wire 1 _" swap $end
$var wire 1 e" zero $end
$var wire 32 f" src_b [31:0] $end
$var wire 32 g" src_a [31:0] $end
$var wire 1 h" overflow $end
$var wire 1 i" neg $end
$var wire 4 j" alu_flags [3:0] $end
$var reg 32 k" alu_result [31:0] $end
$var reg 1 l" cout $end
$upscope $end
$scope module cond_logic_u $end
$var wire 4 m" alu_flag [3:0] $end
$var wire 1 " clk $end
$var wire 4 n" cond [3:0] $end
$var wire 2 o" flag_w [1:0] $end
$var wire 2 p" flag_write [1:0] $end
$var wire 1 E mem_w $end
$var wire 1 A" no_write $end
$var wire 1 M" pc_src $end
$var wire 1 @ pcs $end
$var wire 1 6 reg_w $end
$var wire 1 L" reg_write $end
$var wire 1 ' reset $end
$var wire 1 N" mem_write $end
$var wire 4 q" flags [3:0] $end
$var wire 1 r" cond_ex $end
$scope module cond_check_u $end
$var wire 4 s" cond [3:0] $end
$var wire 4 t" flags [3:0] $end
$var wire 1 u" zero $end
$var wire 1 v" overflow $end
$var wire 1 w" neg $end
$var wire 1 x" carry $end
$var reg 1 r" cond_ex $end
$upscope $end
$scope module ff_h $end
$var wire 1 " clk $end
$var wire 2 y" d [1:0] $end
$var wire 1 z" en $end
$var wire 1 ' reset $end
$var reg 2 {" q [1:0] $end
$upscope $end
$scope module ff_l $end
$var wire 1 " clk $end
$var wire 2 |" d [1:0] $end
$var wire 1 }" en $end
$var wire 1 ' reset $end
$var reg 2 ~" q [1:0] $end
$upscope $end
$upscope $end
$upscope $end
$scope module fetch_u $end
$var wire 32 !# alu_result_e [31:0] $end
$var wire 1 Q branch_take_e $end
$var wire 1 " clk $end
$var wire 32 "# instr [31:0] $end
$var wire 32 ## instr_f [31:0] $end
$var wire 1 ' reset $end
$var wire 1 $# stall_f $end
$var wire 32 %# result_w [31:0] $end
$var wire 1 > pc_src_w $end
$var wire 32 &# pc_plus4_f [31:0] $end
$var wire 32 '# pc_next [31:0] $end
$var wire 32 (# pc [31:0] $end
$var reg 32 )# pc_f [31:0] $end
$upscope $end
$scope module mem_u $end
$var wire 32 *# alu_result_e [31:0] $end
$var wire 1 " clk $end
$var wire 1 H mem_to_reg_e $end
$var wire 1 E mem_write_e $end
$var wire 1 @ pc_src_e $end
$var wire 1 6 reg_write_e $end
$var wire 1 ' reset $end
$var wire 4 +# wa3_e [3:0] $end
$var wire 32 ,# write_data_e [31:0] $end
$var wire 32 -# alu_out_m [31:0] $end
$var reg 32 .# alu_result_m [31:0] $end
$var reg 1 G mem_to_reg_m $end
$var reg 1 D mem_write_m $end
$var reg 1 ? pc_src_m $end
$var reg 1 5 reg_write_m $end
$var reg 4 /# wa3_m [3:0] $end
$var reg 32 0# write_data_m [31:0] $end
$upscope $end
$scope module wb_u $end
$var wire 32 1# alu_out_m [31:0] $end
$var wire 1 " clk $end
$var wire 1 G mem_to_reg_m $end
$var wire 1 ? pc_src_m $end
$var wire 1 5 reg_write_m $end
$var wire 1 ' reset $end
$var wire 4 2# wa3_m [3:0] $end
$var wire 32 3# result_w [31:0] $end
$var wire 32 4# rd_m [31:0] $end
$var reg 32 5# alu_out_w [31:0] $end
$var reg 1 6# mem_to_reg_w $end
$var reg 1 > pc_src_w $end
$var reg 1 7# read_draw_w $end
$var reg 1 4 reg_write_w $end
$var reg 4 8# wa3_w [3:0] $end
$upscope $end
$upscope $end
$upscope $end
$enddefinitions $end
#0
$dumpvars
bx 8#
x7#
x6#
bx 5#
bx 4#
bx 3#
bx 2#
bx 1#
bx 0#
bx /#
bx .#
bx -#
bx ,#
bx +#
bx *#
bx )#
bx (#
bx '#
bx &#
bx %#
x$#
bx ##
bx "#
bx !#
bx ~"
x}"
bx |"
bx {"
xz"
bx y"
xx"
xw"
xv"
xu"
bx t"
bx s"
xr"
bx q"
bx p"
bx o"
bx n"
bx m"
xl"
bx k"
bx j"
xi"
xh"
bx g"
bx f"
xe"
bx d"
bx c"
xb"
bx a"
bx `"
z_"
bx ^"
x]"
bx \"
bx ["
xZ"
bx Y"
xX"
xW"
bx V"
bx U"
xT"
bx S"
bx R"
bx Q"
bx P"
bx O"
xN"
xM"
xL"
bx K"
bx J"
bx I"
bx H"
bx G"
bx F"
bx E"
bx D"
bx C"
bx B"
zA"
bx @"
bx ?"
bx >"
x="
bx <"
bx ;"
bx :"
bx 9"
bx 8"
x7"
bx 6"
bx 5"
b0xxxxx 4"
bx 3"
bx 2"
bx 1"
bx 0"
bx /"
0."
bx -"
bx ,"
bx +"
bx *"
bx )"
bx ("
bx '"
bx &"
bx %"
bx $"
bx #"
bx ""
bx !"
bx ~
bx }
bx |
x{
bx z
bx y
bx x
bx w
bx v
bx u
bx t
bx s
bx r
bx q
bx p
bx o
bx n
bx m
bx l
bx k
xj
xi
bx h
bx g
bx f
bx e
bx d
bx c
bx b
bx a
bx `
bx _
bx ^
bx ]
bx \
bx [
bx Z
bx Y
bx X
xW
bx V
bx U
bx T
xS
xR
xQ
bx P
bx O
bx N
bx M
bx L
bx K
bx J
xI
xH
xG
xF
xE
xD
bx C
bx B
xA
x@
x?
x>
bx =
bx <
bx ;
bx :
bx 9
bx 8
x7
x6
x5
x4
bx 3
x2
bx 1
x0
bx /
bx .
bx -
bx ,
bx +
bx *
bx )
x(
x'
x&
bx %
x$
bx #
1"
bx !
$end
#1
0'
#5
0"
#10
x_"
1"
#11
0w"
0u"
0x"
0v"
b1000 f
b1000 '"
b100 B
b100 g
b100 &#
b0 %
b0 C
b0 )#
b0 {"
b0 q"
b0 t"
b0 ~"
1'
#15
0"
#20
0h"
0W
0$#
b0 6"
0&
b0 ;
b0 a
b0 ,"
b0 1"
b0 B"
b1 y"
0i"
b0 =
b0 X
b0 e
b0 #"
b0 |"
1e"
0A
b0 3"
b100 R"
b100 j"
b100 m"
0b"
b0 T
b0 O"
b0 !#
b0 *#
0R
0I
0F
0S
17
b0 8
b0 ]
b0 w
1{
0l"
b0 P"
b0 k"
b10 V
b10 r
b10 |
b10 9"
b0xx1001 }
0r"
0i
00
b0 f"
0j
02
b0 H"
b0 d"
b0 g"
b0 N
b0 n
b0 y
b0 <"
b0 :
b0 `
b0 +"
b0 C"
07"
b0 5"
b0 4"
0N"
b0 +
b0 F"
b0 ,#
b0 I"
b0 J"
b0 c"
b0 z
b0 <
b0 Y
b0 d
b0 $"
b0 ^
b0 )"
0L"
b0 L
b0 ?"
b0 M
b0 >"
b0 P
b0 p
b0 :"
b0 h
b0 u
b0 m
b0 t
b0 /
b0 [
b0 E"
b0 b
b0 v
b0 c
b0 %"
b0 !"
b0 0"
b100 (#
0="
0$
0M"
b0 _
b0 *"
b0 2"
b0 3
b0 K"
b0 %#
b0 3#
b100 '#
b0 &"
b0 s
0_"
b0 ^"
0]"
b0 .
b0 `"
b0 +#
b0 V"
b0 \"
b0 ["
0W"
b0 U"
b0 n"
b0 s"
0X"
0T"
0Q
b0 S"
b0 a"
0E
0H
06
0@
b0 -
b0 /#
b0 2#
b0 )
b0 *
b0 0#
0(
0D
0G
05
0?
b0 ,
b0 Z
b0 -"
b0 G"
b0 8#
b0 5#
07#
06#
04
0>
b0 !
b0 U
b0 q
b0 ("
b0 Q"
b0 -#
b0 .#
b0 1#
1"
#25
0"
#30
1"
#35
0"
#40
1"
#45
0"
#50
1"
#55
0"
#60
1"
#61
b11101000000011000000000010 J
b11101000000011000000000010 k
b11101000000011000000000010 ##
b11101000000011000000000010 #
b11101000000011000000000010 "#
0'
#65
0"
#70
b10 1
b10 \
b10 8"
b10 D"
b10 O
b10 o
b10 ""
b10 /"
b10 ;"
bx :
bx `
bx +"
bx C"
b10 3"
1S
b0 K
b0 l
b0 x
b0 ~
b0 @"
bx0 8
bx0 ]
bx0 w
b0xx V
b0xx r
b0xx |
b0xx 9"
b1001x01 }
12
b1101 z
b1x <
b1x Y
b1x d
b1x $"
b1000 (#
b111010 m
b111010 t
b11 /
b11 [
b11 E"
b11 b
b11 v
b101000000011000000000010 !"
b10 0"
b1000 '#
x7#
bx ^"
bx V"
xW"
b10 S"
b10 a"
16
b11101000000011000000000010 s
b1100 f
b1100 '"
b1000 B
b1000 g
b1000 &#
b100 %
b100 C
b100 )#
1"
#75
0"
#80
b10 f"
b10 M
b10 >"
b1100 (#
b10 T
b10 O"
b10 !#
b10 *#
bx +
bx F"
bx ,#
bx I"
b10 H"
b10 d"
b1100 '#
b10 ^"
1]"
b11 .
b11 `"
b11 +#
b10 V"
bx \"
1T"
b0xx S"
b0xx a"
15
b10000 f
b10000 '"
b1100 B
b1100 g
b1100 &#
b1000 %
b1000 C
b1000 )#
1"
#85
0"
#90
bx0 L
bx0 ?"
b1 M
b1 >"
b10000 (#
b10000 '#
14
b10 !
b10 U
b10 q
b10 ("
b10 Q"
b10 -#
b10 .#
b10 1#
b11 -
b11 /#
b11 2#
bx )
bx *
bx 0#
b10100 f
b10100 '"
b10000 B
b10000 g
b10000 &#
b1100 %
b1100 C
b1100 )#
1"
#95
0"
#100
b10000000000000000000000000000000 6"
b0 g"
bx L
bx ?"
b0 M
b0 >"
b0 J"
b0 c"
b10100 (#
b10 ;
b10 a
b10 ,"
b10 1"
b10 B"
b10 ^
b10 )"
b10 3
b10 K"
b10 %#
b10 3#
b10100 '#
b11 ,
b11 Z
b11 -"
b11 G"
b11 8#
b10 5#
b11000 f
b11000 '"
b10100 B
b10100 g
b10100 &#
b10000 %
b10000 C
b10000 )#
1"
#105
0"
#110
b10 g"
b11000 (#
b10 J"
b10 c"
b10 _
b10 *"
b10 2"
b11000 '#
b10 ["
b11100 f
b11100 '"
b11000 B
b11000 g
b11000 &#
b10100 %
b10100 C
b10100 )#
1"
#111
b10100000110011000000000001 J
b10100000110011000000000001 k
b10100000110011000000000001 ##
b10100000110011000000000001 #
b10100000110011000000000001 "#
#115
0"
#120
b1 1
b1 \
b1 8"
b1 D"
b1 6"
b1 3"
b0 V
b0 r
b0 |
b0 9"
b1 O
b1 o
b1 ""
b1 /"
b1 ;"
02
b10 M
b10 >"
b100 z
b11 =
b11 X
b11 e
b11 #"
b0x1 <
b0x1 Y
b0x1 d
b0x1 $"
b11100 (#
b101000 m
b101000 t
b100000110011000000000001 !"
b1 0"
b11100 '#
b10100000110011000000000001 s
b100000 f
b100000 '"
b11100 B
b11100 g
b11100 &#
b11000 %
b11000 C
b11000 )#
1"
#125
0"
#130
b0 y"
b0 R"
b0 j"
b0 m"
0e"
b11 P"
b11 k"
b1 f"
b100000 (#
b11 T
b11 O"
b11 !#
b11 *#
b1 H"
b1 d"
b100000 '#
b1 ^"
0]"
b1 V"
b0 S"
b0 a"
b100100 f
b100100 '"
b100000 B
b100000 g
b100000 &#
b11100 %
b11100 C
b11100 )#
1"
#135
0"
#140
b100 T
b100 O"
b100 !#
b100 *#
b100 P"
b100 k"
b11 g"
b11 J"
b11 c"
b100100 (#
b100100 '#
b11 !
b11 U
b11 q
b11 ("
b11 Q"
b11 -#
b11 .#
b11 1#
b101000 f
b101000 '"
b100100 B
b100100 g
b100100 &#
b100000 %
b100000 C
b100000 )#
1"
#145
0"
#150
b101 T
b101 O"
b101 !#
b101 *#
b101 P"
b101 k"
b10000000000000000000000000000001 6"
b100 g"
b100 J"
b100 c"
b101000 (#
b11 3
b11 K"
b11 %#
b11 3#
b11 ;
b11 a
b11 ,"
b11 1"
b11 B"
b11 _
b11 *"
b11 2"
b101000 '#
b11 5#
b100 !
b100 U
b100 q
b100 ("
b100 Q"
b100 -#
b100 .#
b100 1#
b101100 f
b101100 '"
b101000 B
b101000 g
b101000 &#
b100100 %
b100100 C
b100100 )#
1"
#155
0"
#160
b110 T
b110 O"
b110 !#
b110 *#
b110 P"
b110 k"
b10 6"
b101 g"
b101 J"
b101 c"
b101100 (#
b100 ;
b100 a
b100 ,"
b100 1"
b100 B"
b100 _
b100 *"
b100 2"
b100 3
b100 K"
b100 %#
b100 3#
b101100 '#
b11 ["
b101 !
b101 U
b101 q
b101 ("
b101 Q"
b101 -#
b101 .#
b101 1#
b100 5#
b110000 f
b110000 '"
b101100 B
b101100 g
b101100 &#
b101000 %
b101000 C
b101000 )#
1"
#161
b10010000110100000000000001 J
b10010000110100000000000001 k
b10010000110100000000000001 ##
b10010000110100000000000001 #
b10010000110100000000000001 "#
#165
0"
#170
b111 T
b111 O"
b111 !#
b111 *#
b111 P"
b111 k"
b1 V
b1 r
b1 |
b1 9"
b10000000000000000000000000000010 6"
b110 g"
b0 L
b0 ?"
b110 J"
b110 c"
b10 z
b0x0x <
b0x0x Y
b0x0x d
b0x0x $"
b110000 (#
b101 3
b101 K"
b101 %#
b101 3#
b100100 m
b100100 t
b100 /
b100 [
b100 E"
b100 b
b100 v
b10000110100000000000001 !"
b101 ;
b101 a
b101 ,"
b101 1"
b101 B"
b101 _
b101 *"
b101 2"
b110000 '#
b101 5#
b110 !
b110 U
b110 q
b110 ("
b110 Q"
b110 -#
b110 .#
b110 1#
b100 ["
b10010000110100000000000001 s
b110100 f
b110100 '"
b110000 B
b110000 g
b110000 &#
b101100 %
b101100 C
b101100 )#
1"
#175
0"
#180
b110 T
b110 O"
b110 !#
b110 *#
b110 P"
b110 k"
b11 6"
b111 g"
b111 J"
b111 c"
b110100 (#
b110 ;
b110 a
b110 ,"
b110 1"
b110 B"
b110 _
b110 *"
b110 2"
b110 3
b110 K"
b110 %#
b110 3#
b110100 '#
b100 .
b100 `"
b100 +#
b101 ["
b1 S"
b1 a"
b111 !
b111 U
b111 q
b111 ("
b111 Q"
b111 -#
b111 .#
b111 1#
b110 5#
b111000 f
b111000 '"
b110100 B
b110100 g
b110100 &#
b110000 %
b110000 C
b110000 )#
1"
#185
0"
#190
b10000000000000000000000000000011 6"
bx0 L
bx0 ?"
b1 M
b1 >"
b111000 (#
b111 3
b111 K"
b111 %#
b111 3#
b111 ;
b111 a
b111 ,"
b111 1"
b111 B"
b111 _
b111 *"
b111 2"
b111000 '#
b111 5#
b110 !
b110 U
b110 q
b110 ("
b110 Q"
b110 -#
b110 .#
b110 1#
b100 -
b100 /#
b100 2#
b110 ["
b111100 f
b111100 '"
b111000 B
b111000 g
b111000 &#
b110100 %
b110100 C
b110100 )#
1"
#195
0"
#200
b110 P"
b110 k"
b11 6"
b111 g"
bx L
bx ?"
b0 M
b0 >"
b111 J"
b111 c"
b111100 (#
b110 ;
b110 a
b110 ,"
b110 1"
b110 B"
b0 _
b0 *"
b0 2"
b110 3
b110 K"
b110 %#
b110 3#
b111100 '#
b111 ["
b100 ,
b100 Z
b100 -"
b100 G"
b100 8#
b110 5#
b1000000 f
b1000000 '"
b111100 B
b111100 g
b111100 &#
b111000 %
b111000 C
b111000 )#
1"
#205
0"
#210
b101 T
b101 O"
b101 !#
b101 *#
b101 P"
b101 k"
b110 g"
b1000000 (#
b110 J"
b110 c"
b110 _
b110 *"
b110 2"
b1000000 '#
b110 ["
b1000100 f
b1000100 '"
b1000000 B
b1000000 g
b1000000 &#
b111100 %
b111100 C
b111100 )#
1"
#211
b100000110011000000000011 J
b100000110011000000000011 k
b100000110011000000000011 ##
b100000110011000000000011 #
b100000110011000000000011 "#
#215
0"
#220
b110 6"
0S
bx K
bx l
bx x
bx ~
bx @"
b0 8
b0 ]
b0 w
b0 3"
b0 V
b0 r
b0 |
b0 9"
b0xx1001 }
bx O
bx o
bx ""
bx /"
bx ;"
b0 L
b0 ?"
b110 :
b110 `
b110 +"
b110 C"
b100 z
b11 <
b11 Y
b11 d
b11 $"
b1000100 (#
b1000 m
b1000 t
b11 /
b11 [
b11 E"
b11 b
b11 v
b100000110011000000000011 !"
b11 0"
b1000100 '#
b100000110011000000000011 s
b101 !
b101 U
b101 q
b101 ("
b101 Q"
b101 -#
b101 .#
b101 1#
b1001000 f
b1001000 '"
b1000100 B
b1000100 g
b1000100 &#
b1000000 %
b1000000 C
b1000000 )#
1"
#225
0"
#230
b1100 T
b1100 O"
b1100 !#
b1100 *#
0l"
b1100 P"
b1100 k"
b110 f"
b1001000 (#
b101 3
b101 K"
b101 %#
b101 3#
b110 +
b110 F"
b110 ,#
b110 I"
b110 H"
b110 d"
b101 _
b101 *"
b101 2"
b1001000 '#
b101 5#
b11 .
b11 `"
b11 +#
bx V"
b110 \"
0T"
b0 S"
b0 a"
b1001100 f
b1001100 '"
b1001000 B
b1001000 g
b1001000 &#
b1000100 %
b1000100 C
b1000100 )#
1"
#235
0"
#240
b11000 T
b11000 O"
b11000 !#
b11000 *#
b11000 P"
b11000 k"
b1100 f"
b1100 H"
b1100 d"
b1100 g"
b1100 +
b1100 F"
b1100 ,#
b1100 I"
b1100 J"
b1100 c"
b10 L
b10 ?"
b10 M
b10 >"
b1001100 (#
b1001100 '#
b1100 !
b1100 U
b1100 q
b1100 ("
b1100 Q"
b1100 -#
b1100 .#
b1100 1#
b11 -
b11 /#
b11 2#
b110 )
b110 *
b110 0#
b1010000 f
b1010000 '"
b1001100 B
b1001100 g
b1001100 &#
b1001000 %
b1001000 C
b1001000 )#
1"
#245
0"
#250
b110000 T
b110000 O"
b110000 !#
b110000 *#
b110000 P"
b110000 k"
b11000 f"
b11000 H"
b11000 d"
b11000 g"
b11000 +
b11000 F"
b11000 ,#
b11000 I"
b11000 J"
b11000 c"
b1010000 (#
b1100 3
b1100 K"
b1100 %#
b1100 3#
b110 _
b110 *"
b110 2"
b1010000 '#
b11 ,
b11 Z
b11 -"
b11 G"
b11 8#
b1100 5#
b11000 !
b11000 U
b11000 q
b11000 ("
b11000 Q"
b11000 -#
b11000 .#
b11000 1#
b1100 )
b1100 *
b1100 0#
b1010100 f
b1010100 '"
b1010000 B
b1010000 g
b1010000 &#
b1001100 %
b1001100 C
b1001100 )#
1"
#255
0"
#260
b1100000 T
b1100000 O"
b1100000 !#
b1100000 *#
b1100000 P"
b1100000 k"
b110000 f"
b110000 H"
b110000 d"
b110000 g"
b11000 6"
b110000 +
b110000 F"
b110000 ,#
b110000 I"
b110000 J"
b110000 c"
b1010100 (#
b11000 ;
b11000 a
b11000 ,"
b11000 1"
b11000 B"
b11000 :
b11000 `
b11000 +"
b11000 C"
b11000 _
b11000 *"
b11000 2"
b11000 3
b11000 K"
b11000 %#
b11000 3#
b1010100 '#
b110000 !
b110000 U
b110000 q
b110000 ("
b110000 Q"
b110000 -#
b110000 .#
b110000 1#
b11000 )
b11000 *
b11000 0#
b11000 5#
b1011000 f
b1011000 '"
b1010100 B
b1010100 g
b1010100 &#
b1010000 %
b1010000 C
b1010000 )#
1"
#261
b11100100000001010011000000011010 J
b11100100000001010011000000011010 k
b11100100000001010011000000011010 ##
b11100100000001010011000000011010 #
b11100100000001010011000000011010 "#
#265
0"
#270
b11010 O
b11010 o
b11010 ""
b11010 /"
b11010 ;"
b1111000 T
b1111000 O"
b1111000 !#
b1111000 *#
xI
1F
1S
b1 K
b1 l
b1 x
b1 ~
b1 @"
07
b10 8
b10 ]
b10 w
0{
b1111000 P"
b1111000 k"
b0 V
b0 r
b0 |
b0 9"
b0x11010100 }
b0 1
b0 \
b0 8"
b0 D"
b1100000 f"
b1100000 H"
b1100000 d"
b11000 g"
b0 M
b0 >"
b10 L
b10 ?"
b11010 3"
b1100000 +
b1100000 F"
b1100000 ,#
b1100000 I"
b11000 J"
b11000 c"
17"
b0 6"
b0 z
b101 =
b101 X
b101 e
b101 #"
b11 <
b11 Y
b11 d
b11 $"
b1011000 (#
b110000 3
b110000 K"
b110000 %#
b110000 3#
b1110 P
b1110 p
b1110 :"
b1 h
b1 u
b0 m
b0 t
b1010011000000011010 !"
b11010 0"
b0 ;
b0 a
b0 ,"
b0 1"
b0 B"
b110000 :
b110000 `
b110000 +"
b110000 C"
b110000 _
b110000 *"
b110000 2"
b1011000 '#
b110000 5#
b1100000 !
b1100000 U
b1100000 q
b1100000 ("
b1100000 Q"
b1100000 -#
b1100000 .#
b1100000 1#
b110000 )
b110000 *
b110000 0#
b11000 \"
b11000 ["
b11100100000001010011000000011010 s
b1011100 f
b1011100 '"
b1011000 B
b1011000 g
b1011000 &#
b1010100 %
b1010100 C
b1010100 )#
1"
#275
0"
#280
1N"
b11010 T
b11010 O"
b11010 !#
b11010 *#
b11010 P"
b11010 k"
1r"
b1111000 +
b1111000 F"
b1111000 ,#
b1111000 I"
b0 g"
b11010 f"
x="
x$#
b1011100 (#
b0 J"
b0 c"
b11010 H"
b11010 d"
x$
b1100000 3
b1100000 K"
b1100000 %#
b1100000 3#
b1011100 '#
b0 ^"
b11010 V"
b110000 \"
b0 ["
b1110 U"
b1110 n"
b1110 s"
1T"
1E
xH
06
b1111000 !
b1111000 U
b1111000 q
b1111000 ("
b1111000 Q"
b1111000 -#
b1111000 .#
b1111000 1#
b1100000 )
b1100000 *
b1100000 0#
b1100000 5#
b1100000 f
b1100000 '"
b1011100 B
b1011100 g
b1011100 &#
b1011000 %
b1011000 C
b1011000 )#
1"
#285
0"
#290
b1 L
b1 ?"
b1100000 (#
b1111000 3
b1111000 K"
b1111000 %#
b1111000 3#
b1100000 '#
b1111000 5#
b11010 !
b11010 U
b11010 q
b11010 ("
b11010 Q"
b11010 -#
b11010 .#
b11010 1#
b1111000 )
b1111000 *
b1111000 0#
1(
1D
xG
05
b1100100 f
b1100100 '"
b1100000 B
b1100000 g
b1100000 &#
b1011100 %
b1011100 C
b1011100 )#
1"
#295
0"
